hw/work/dump.vcd
$date
	Mon Jun 29 18:46:09 2026
$end
$version
	Icarus Verilog
$end
$timescale
	1ns
$end
$scope module mm_simtop $end
$var event 1 ! write_ok $end
$var event 1 " write_err $end
$var event 1 # read_ok $end
$var event 1 $ read_err $end
$var wire 32 % sys_rdata [31:0] $end
$var wire 1 & sys_err $end
$var wire 1 ' sys_ack $end
$var wire 8 ( led_o [7:0] $end
$var reg 1 ) DEBUG_MODE $end
$var reg 9 * N [8:0] $end
$var reg 1 + clk $end
$var reg 1 , rst $end
$var reg 32 - sys_addr [31:0] $end
$var reg 1 . sys_ren $end
$var reg 32 / sys_wdata [31:0] $end
$var reg 1 0 sys_wen $end
$scope module mm_core $end
$var wire 1 + clk $end
$var wire 1 , rst $end
$var wire 32 1 sys_addr [31:0] $end
$var wire 1 . sys_ren $end
$var wire 32 2 sys_wdata [31:0] $end
$var wire 1 0 sys_wen $end
$var wire 1 3 yram_we $end
$var wire 32 4 yram_wdata [31:0] $end
$var wire 32 5 yram_rdata [31:0] $end
$var wire 1 6 yram_ce $end
$var wire 9 7 yram_addr [8:0] $end
$var wire 1 8 xram_we $end
$var wire 16 9 xram_wdata [15:0] $end
$var wire 16 : xram_rdata [15:0] $end
$var wire 1 ; xram_ce $end
$var wire 8 < xram_addr [7:0] $end
$var wire 32 = sys_rdata [31:0] $end
$var wire 1 & sys_err $end
$var wire 1 ' sys_ack $end
$var wire 512 > row_rdata [511:0] $end
$var wire 1 ? row_ce $end
$var wire 11 @ row_addr [10:0] $end
$var wire 1 A reg_we $end
$var wire 32 B reg_wdata [31:0] $end
$var wire 32 C reg_rdata [31:0] $end
$var wire 1 D reg_ce $end
$var wire 10 E reg_addr [9:0] $end
$var wire 9 F n [8:0] $end
$var wire 1 G mram_we $end
$var wire 16 H mram_wdata [15:0] $end
$var wire 16 I mram_rdata [15:0] $end
$var wire 1 J mram_ce $end
$var wire 16 K mram_addr [15:0] $end
$var wire 1 L mm_start $end
$var wire 1 M mm_done $end
$var wire 8 N led_o [7:0] $end
$var wire 512 O col_rdata [511:0] $end
$var wire 1 P col_ce $end
$var wire 3 Q col_addr [2:0] $end
$var wire 1 R ccnt_clr $end
$var wire 32 S ccnt [31:0] $end
$var wire 1 T acc_out_we $end
$var wire 40 U acc_out_wdata [39:0] $end
$var wire 1 V acc_out_ce $end
$var wire 8 W acc_out_addr [7:0] $end
$var wire 1 X acc_en $end
$var wire 1 Y acc_clr $end
$scope module mm_axi_slave $end
$var wire 1 + clk $end
$var wire 1 , rst $end
$var wire 32 Z sys_addr [31:0] $end
$var wire 1 . sys_ren $end
$var wire 32 [ sys_wdata [31:0] $end
$var wire 1 0 sys_wen $end
$var wire 32 \ yram_rdata [31:0] $end
$var wire 16 ] xram_rdata [15:0] $end
$var wire 32 ^ reg_rdata [31:0] $end
$var wire 16 _ mram_rdata [15:0] $end
$var reg 3 ` axi_state [2:0] $end
$var reg 16 a mram_addr [15:0] $end
$var reg 1 J mram_ce $end
$var reg 16 b mram_wdata [15:0] $end
$var reg 1 G mram_we $end
$var reg 10 c reg_addr [9:0] $end
$var reg 1 D reg_ce $end
$var reg 32 d reg_wdata [31:0] $end
$var reg 1 A reg_we $end
$var reg 1 ' sys_ack $end
$var reg 1 & sys_err $end
$var reg 32 e sys_rdata [31:0] $end
$var reg 8 f xram_addr [7:0] $end
$var reg 1 ; xram_ce $end
$var reg 16 g xram_wdata [15:0] $end
$var reg 1 8 xram_we $end
$var reg 9 h yram_addr [8:0] $end
$var reg 1 6 yram_ce $end
$var reg 32 i yram_wdata [31:0] $end
$var reg 1 3 yram_we $end
$upscope $end
$scope module mm_ctrl $end
$var wire 1 + clk $end
$var wire 3 j col_addr [2:0] $end
$var wire 1 , rst $end
$var wire 11 k row_addr [10:0] $end
$var wire 9 l n [8:0] $end
$var wire 1 L mm_start $end
$var wire 1 R ccnt_clr $end
$var reg 1 Y acc_clr $end
$var reg 1 X acc_en $end
$var reg 32 m ccnt [31:0] $end
$var reg 1 P col_ce $end
$var reg 1 n is_first $end
$var reg 1 M mm_done $end
$var reg 3 o mm_state [2:0] $end
$var reg 4 p n_pages [3:0] $end
$var reg 3 q page_cnt [2:0] $end
$var reg 1 ? row_ce $end
$var reg 8 r row_cnt [7:0] $end
$var reg 3 s wait_cnt [2:0] $end
$upscope $end
$scope module mm_mac $end
$var wire 1 Y acc_clr $end
$var wire 1 X acc_en $end
$var wire 1 + clk $end
$var wire 1 , rst $end
$var wire 8 t yram_addr [7:0] $end
$var wire 1 V yram_ce $end
$var wire 40 u yram_wdata [39:0] $end
$var wire 1 T yram_we $end
$var wire 512 v row_rdata [511:0] $end
$var wire 40 w psum [39:0] $end
$var wire 512 x col_rdata [511:0] $end
$var reg 40 y acc_out [39:0] $end
$var reg 1 z acc_valid $end
$var reg 1 { clr_r1 $end
$var reg 1 | clr_r2 $end
$var reg 1 } clr_s1 $end
$var reg 1 ~ clr_s2 $end
$var reg 1 !" clr_s3 $end
$var reg 1 "" clr_s4 $end
$var reg 1 #" clr_s5 $end
$var reg 512 $" col_reg [511:0] $end
$var reg 1 %" en_r1 $end
$var reg 1 &" en_r2 $end
$var reg 1 '" en_s1 $end
$var reg 1 (" en_s2 $end
$var reg 1 )" en_s3 $end
$var reg 1 *" en_s4 $end
$var reg 1 +" en_s5 $end
$var reg 8 ," res_addr [7:0] $end
$var reg 512 -" row_reg [511:0] $end
$var reg 37 ." sum_5 [36:0] $end
$var integer 32 /" i [31:0] $end
$upscope $end
$scope module mm_mram $end
$var wire 16 0" addr_a [15:0] $end
$var wire 11 1" addr_b [10:0] $end
$var wire 1 J ce_a $end
$var wire 1 ? ce_b $end
$var wire 1 + clk $end
$var wire 16 2" wdata_a [15:0] $end
$var wire 512 3" wdata_b [511:0] $end
$var wire 1 G we_a $end
$var wire 1 4" we_b $end
$var reg 16 5" rdata_a [15:0] $end
$var reg 512 6" rdata_b [511:0] $end
$scope begin port_a $end
$upscope $end
$scope begin port_b $end
$var integer 32 7" i [31:0] $end
$upscope $end
$upscope $end
$scope module mm_reg $end
$var wire 10 8" addr [9:0] $end
$var wire 32 9" ccnt [31:0] $end
$var wire 1 D ce $end
$var wire 1 + clk $end
$var wire 1 M mm_done $end
$var wire 1 , rst $end
$var wire 32 :" wdata [31:0] $end
$var wire 1 A we $end
$var wire 8 ;" led_o [7:0] $end
$var reg 1 R ccnt_clr $end
$var reg 1 L mm_start $end
$var reg 9 <" n [8:0] $end
$var reg 32 =" rdata [31:0] $end
$upscope $end
$scope module mm_xram $end
$var wire 8 >" addr_a [7:0] $end
$var wire 3 ?" addr_b [2:0] $end
$var wire 1 ; ce_a $end
$var wire 1 P ce_b $end
$var wire 1 + clk $end
$var wire 16 @" wdata_a [15:0] $end
$var wire 512 A" wdata_b [511:0] $end
$var wire 1 8 we_a $end
$var wire 1 B" we_b $end
$var reg 16 C" rdata_a [15:0] $end
$var reg 512 D" rdata_b [511:0] $end
$scope begin port_a $end
$upscope $end
$scope begin port_b $end
$var integer 32 E" i [31:0] $end
$upscope $end
$upscope $end
$scope module mm_yram $end
$var wire 9 F" addr_a [8:0] $end
$var wire 8 G" addr_b [7:0] $end
$var wire 1 6 ce_a $end
$var wire 1 H" ce_a_l $end
$var wire 1 I" ce_a_u $end
$var wire 1 V ce_b $end
$var wire 1 + clk $end
$var wire 32 J" wdata_a [31:0] $end
$var wire 40 K" wdata_b [39:0] $end
$var wire 1 3 we_a $end
$var wire 1 T we_b $end
$var wire 32 L" rdata_a [31:0] $end
$var wire 8 M" addr_a_u [7:0] $end
$var wire 8 N" addr_a_l [7:0] $end
$var reg 32 O" rdata_a_l [31:0] $end
$var reg 8 P" rdata_a_u [7:0] $end
$scope begin port_a_lower $end
$upscope $end
$scope begin port_a_upper $end
$upscope $end
$scope begin port_b_lower $end
$upscope $end
$scope begin port_b_upper $end
$upscope $end
$upscope $end
$upscope $end
$scope task axi_read $end
$var reg 32 Q" addr [31:0] $end
$var reg 32 R" data [31:0] $end
$upscope $end
$scope task axi_write $end
$var reg 32 S" addr [31:0] $end
$var reg 32 T" data [31:0] $end
$upscope $end
$scope task delay $end
$var reg 32 U" nclocks [31:0] $end
$upscope $end
$scope task endsim $end
$var reg 1 V" fail_flag $end
$upscope $end
$scope task load_m $end
$var reg 32 W" mram_addr [31:0] $end
$var reg 9 X" n [8:0] $end
$var integer 32 Y" ca [31:0] $end
$var integer 32 Z" npages [31:0] $end
$var integer 32 [" ra [31:0] $end
$upscope $end
$scope task load_x $end
$var reg 9 \" n [8:0] $end
$var reg 32 ]" xram_addr [31:0] $end
$var integer 32 ^" ra [31:0] $end
$upscope $end
$scope task poll_for_done $end
$var reg 1 _" mm_done $end
$var reg 9 `" n [8:0] $end
$var reg 32 a" rdata [31:0] $end
$var integer 32 b" gap [31:0] $end
$upscope $end
$scope task read_y $end
$var reg 9 c" n [8:0] $end
$var reg 32 d" rdata [31:0] $end
$var reg 40 e" y [39:0] $end
$var reg 32 f" yram_addr [31:0] $end
$var integer 32 g" i [31:0] $end
$var integer 32 h" ra [31:0] $end
$upscope $end
$scope task sys_reset $end
$upscope $end
$upscope $end
$scope module mult_test $end
$var reg 32 i" cycle_count [31:0] $end
$var reg 1 j" err_flag $end
$var reg 32 k" id [31:0] $end
$var integer 32 l" i [31:0] $end
$var integer 32 m" j [31:0] $end
$var integer 32 n" n [31:0] $end
$upscope $end
$enddefinitions $end
#0
$dumpvars
b1010 n"
b1010 m"
b1010 l"
bx k"
0j"
bx i"
bx h"
bx g"
bx f"
bx e"
bx d"
bx c"
bx b"
bx a"
bx `"
x_"
bx ^"
bx ]"
bx \"
bx ["
bx Z"
bx Y"
bx X"
bx W"
xV"
bx U"
bx T"
bx S"
bx R"
bx Q"
bx P"
bx O"
bx N"
bx M"
bx L"
bx K"
bx J"
xI"
xH"
bx G"
bx F"
bx E"
bx D"
bx C"
0B"
bz A"
bx @"
bx ?"
bx >"
bx ="
bx <"
bx ;"
bx :"
bx 9"
bx 8"
bx 7"
bx 6"
bx 5"
04"
bz 3"
bx 2"
bx 1"
bx 0"
bx /"
bx ."
bx -"
bx ,"
x+"
x*"
x)"
x("
x'"
x&"
x%"
bx $"
x#"
x""
x!"
x~
x}
x|
x{
xz
bx y
bx x
bx w
bx v
bx u
bx t
bx s
bx r
bx q
bx p
bx o
xn
bx m
bx l
bx k
bx j
bx i
bx h
bx g
bx f
bx e
bx d
bx c
bx b
bx a
bx `
bx _
bx ^
bx ]
bx \
bx [
bx Z
xY
xX
bx W
xV
bx U
xT
bx S
xR
bx Q
xP
bx O
bx N
xM
xL
bx K
xJ
bx I
bx H
xG
bx F
bx E
xD
bx C
bx B
xA
bx @
x?
bx >
bx =
bx <
x;
bx :
bx 9
x8
bx 7
x6
bx 5
bx 4
x3
bx 2
bx 1
00
bx /
0.
bx -
1,
0+
b1010 *
1)
bx (
x'
x&
bx %
1$
1#
1"
1!
$end
#5
0I"
0H"
b0 (
b0 N
b0 ;"
b0 `
b11101110111011101110111011101110 %
b11101110111011101110111011101110 =
b11101110111011101110111011101110 e
03
06
0G
0J
08
0;
0A
0D
0&
0'
0R
0L
b0 F
b0 l
b0 <"
0|
0&"
0}
0'"
0~
0("
0!"
0)"
0""
0*"
0#"
0+"
0T
0V
0z
b0 U
b0 u
b0 K"
b0 y
b11111111 W
b11111111 t
b11111111 G"
b11111111 ,"
0n
b0 s
b0 Q
b0 j
b0 ?"
b0 q
b0 @
b0 k
b0 1"
b0 r
b0 p
0Y
0X
0?
0P
1M
b0 o
b0 S
b0 m
b0 9"
b100000 7"
b100000 E"
1+
#10
0+
#15
0{
0%"
b100000 7"
b100000 E"
1+
#16
b1000000001100000000000000000000 Q"
0,
#20
0+
#25
b100000 7"
b100000 E"
b100000 /"
1+
#30
0+
#33
1.
b1000000001100000000000000000000 -
b1000000001100000000000000000000 1
b1000000001100000000000000000000 Z
#35
b1 `
b0 E
b0 c
b0 8"
1D
b100000 7"
b100000 E"
b10 /"
1+
#36
bx -
bx 1
bx Z
#40
0+
#45
b10 `
b10000011011111101010000000000001 C
b10000011011111101010000000000001 ^
b10000011011111101010000000000001 ="
b100000 7"
b100000 E"
b100000 /"
1+
#50
0+
#55
b11 `
1'
b10000011011111101010000000000001 %
b10000011011111101010000000000001 =
b10000011011111101010000000000001 e
b100000 7"
b100000 E"
b10 /"
1+
#60
0+
#65
b100 `
0D
0'
b100000 7"
b100000 E"
b100000 /"
1#
b10000011011111101010000000000001 R"
1+
#66
0.
#70
0+
#75
b101 `
b1010 T"
b1000000001100000000000000001100 S"
b10000011011111101010000000000001 k"
b100000 7"
b100000 E"
b10 /"
1+
#80
0+
#85
b0 `
b100000 7"
b100000 E"
b100000 /"
1+
#90
0+
#93
10
b1010 /
b1010 2
b1010 [
b1000000001100000000000000001100 -
b1000000001100000000000000001100 1
b1000000001100000000000000001100 Z
#95
b11 `
1'
b1010 B
b1010 d
b1010 :"
b1100 E
b1100 c
b1100 8"
1A
1D
b100000 7"
b100000 E"
b10 /"
1+
#100
0+
#105
b1010 (
b1010 N
b1010 ;"
b100 `
0A
0D
0'
b1010 F
b1010 l
b1010 <"
b100000 7"
b100000 E"
1!
b100000 /"
1+
#106
00
bx /
bx 2
bx [
bx -
bx 1
bx Z
#110
0+
#115
b101 `
b1 T"
b1000000001100100000000000000000 S"
b1000000001100100000000000000000 ]"
b0 ^"
b1010 \"
b100000 7"
b100000 E"
b10 /"
1+
#120
0+
#125
b0 `
b100000 7"
b100000 E"
b100000 /"
1+
#130
0+
#133
10
b1 /
b1 2
b1 [
b1000000001100100000000000000000 -
b1000000001100100000000000000000 1
b1000000001100100000000000000000 Z
#135
b11 `
1'
b1 9
b1 g
b1 @"
b0 <
b0 f
b0 >"
18
1;
b100000 7"
b100000 E"
b10 /"
1+
#140
0+
#145
b100 `
08
0;
0'
b100000 7"
b100000 E"
1!
b100000 /"
1+
#146
00
bx /
bx 2
bx [
bx -
bx 1
bx Z
#150
0+
#155
bx0000000000000001 O
bx0000000000000001 x
bx0000000000000001 D"
b1 :
b1 ]
b1 C"
b101 `
b10 T"
b1000000001100100000000000000100 S"
b1000000001100100000000000000100 ]"
b1 ^"
b100000 7"
b100000 E"
b10 /"
1+
#160
0+
#165
b0 `
bx0000000000000001 $"
b100000 7"
b100000 E"
b100000 /"
1+
#170
0+
#173
10
b10 /
b10 2
b10 [
b1000000001100100000000000000100 -
b1000000001100100000000000000100 1
b1000000001100100000000000000100 Z
#175
b11 `
1'
b10 9
b10 g
b10 @"
b1 <
b1 f
b1 >"
18
1;
b100000 7"
b100000 E"
b10 /"
1+
#180
0+
#185
bx :
bx ]
bx C"
b100 `
08
0;
0'
b100000 7"
b100000 E"
1!
b100000 /"
1+
#186
00
bx /
bx 2
bx [
bx -
bx 1
bx Z
#190
0+
#195
bx00000000000000100000000000000001 O
bx00000000000000100000000000000001 x
bx00000000000000100000000000000001 D"
b10 :
b10 ]
b10 C"
b101 `
b11 T"
b1000000001100100000000000001000 S"
b1000000001100100000000000001000 ]"
b10 ^"
b100000 7"
b100000 E"
b10 /"
1+
#200
0+
#205
b0 `
bx00000000000000100000000000000001 $"
b100000 7"
b100000 E"
b100000 /"
1+
#210
0+
#213
10
b11 /
b11 2
b11 [
b1000000001100100000000000001000 -
b1000000001100100000000000001000 1
b1000000001100100000000000001000 Z
#215
b11 `
1'
b11 9
b11 g
b11 @"
b10 <
b10 f
b10 >"
18
1;
b100000 7"
b100000 E"
b10 /"
1+
#220
0+
#225
bx :
bx ]
bx C"
b100 `
08
0;
0'
b100000 7"
b100000 E"
1!
b100000 /"
1+
#226
00
bx /
bx 2
bx [
bx -
bx 1
bx Z
#230
0+
#235
bx000000000000001100000000000000100000000000000001 O
bx000000000000001100000000000000100000000000000001 x
bx000000000000001100000000000000100000000000000001 D"
b11 :
b11 ]
b11 C"
b101 `
b100 T"
b1000000001100100000000000001100 S"
b1000000001100100000000000001100 ]"
b11 ^"
b100000 7"
b100000 E"
b10 /"
1+
#240
0+
#245
b0 `
bx000000000000001100000000000000100000000000000001 $"
b100000 7"
b100000 E"
b100000 /"
1+
#250
0+
#253
10
b100 /
b100 2
b100 [
b1000000001100100000000000001100 -
b1000000001100100000000000001100 1
b1000000001100100000000000001100 Z
#255
b11 `
1'
b100 9
b100 g
b100 @"
b11 <
b11 f
b11 >"
18
1;
b100000 7"
b100000 E"
b10 /"
1+
#260
0+
#265
bx :
bx ]
bx C"
b100 `
08
0;
0'
b100000 7"
b100000 E"
1!
b100000 /"
1+
#266
00
bx /
bx 2
bx [
bx -
bx 1
bx Z
#270
0+
#275
bx0000000000000100000000000000001100000000000000100000000000000001 O
bx0000000000000100000000000000001100000000000000100000000000000001 x
bx0000000000000100000000000000001100000000000000100000000000000001 D"
b100 :
b100 ]
b100 C"
b101 `
b101 T"
b1000000001100100000000000010000 S"
b1000000001100100000000000010000 ]"
b100 ^"
b100000 7"
b100000 E"
b10 /"
1+
#280
0+
#285
b0 `
bx0000000000000100000000000000001100000000000000100000000000000001 $"
b100000 7"
b100000 E"
b100000 /"
1+
#290
0+
#293
10
b101 /
b101 2
b101 [
b1000000001100100000000000010000 -
b1000000001100100000000000010000 1
b1000000001100100000000000010000 Z
#295
b11 `
1'
b101 9
b101 g
b101 @"
b100 <
b100 f
b100 >"
18
1;
b100000 7"
b100000 E"
b10 /"
1+
#300
0+
#305
bx :
bx ]
bx C"
b100 `
08
0;
0'
b100000 7"
b100000 E"
1!
b100000 /"
1+
#306
00
bx /
bx 2
bx [
bx -
bx 1
bx Z
#310
0+
#315
bx00000000000001010000000000000100000000000000001100000000000000100000000000000001 O
bx00000000000001010000000000000100000000000000001100000000000000100000000000000001 x
bx00000000000001010000000000000100000000000000001100000000000000100000000000000001 D"
b101 :
b101 ]
b101 C"
b101 `
b110 T"
b1000000001100100000000000010100 S"
b1000000001100100000000000010100 ]"
b101 ^"
b100000 7"
b100000 E"
b10 /"
1+
#320
0+
#325
b0 `
bx00000000000001010000000000000100000000000000001100000000000000100000000000000001 $"
b100000 7"
b100000 E"
b100000 /"
1+
#330
0+
#333
10
b110 /
b110 2
b110 [
b1000000001100100000000000010100 -
b1000000001100100000000000010100 1
b1000000001100100000000000010100 Z
#335
b11 `
1'
b110 9
b110 g
b110 @"
b101 <
b101 f
b101 >"
18
1;
b100000 7"
b100000 E"
b10 /"
1+
#340
0+
#345
bx :
bx ]
bx C"
b100 `
08
0;
0'
b100000 7"
b100000 E"
1!
b100000 /"
1+
#346
00
bx /
bx 2
bx [
bx -
bx 1
bx Z
#350
0+
#355
bx000000000000011000000000000001010000000000000100000000000000001100000000000000100000000000000001 O
bx000000000000011000000000000001010000000000000100000000000000001100000000000000100000000000000001 x
bx000000000000011000000000000001010000000000000100000000000000001100000000000000100000000000000001 D"
b110 :
b110 ]
b110 C"
b101 `
b111 T"
b1000000001100100000000000011000 S"
b1000000001100100000000000011000 ]"
b110 ^"
b100000 7"
b100000 E"
b10 /"
1+
#360
0+
#365
b0 `
bx000000000000011000000000000001010000000000000100000000000000001100000000000000100000000000000001 $"
b100000 7"
b100000 E"
b100000 /"
1+
#370
0+
#373
10
b111 /
b111 2
b111 [
b1000000001100100000000000011000 -
b1000000001100100000000000011000 1
b1000000001100100000000000011000 Z
#375
b11 `
1'
b111 9
b111 g
b111 @"
b110 <
b110 f
b110 >"
18
1;
b100000 7"
b100000 E"
b10 /"
1+
#380
0+
#385
bx :
bx ]
bx C"
b100 `
08
0;
0'
b100000 7"
b100000 E"
1!
b100000 /"
1+
#386
00
bx /
bx 2
bx [
bx -
bx 1
bx Z
#390
0+
#395
bx0000000000000111000000000000011000000000000001010000000000000100000000000000001100000000000000100000000000000001 O
bx0000000000000111000000000000011000000000000001010000000000000100000000000000001100000000000000100000000000000001 x
bx0000000000000111000000000000011000000000000001010000000000000100000000000000001100000000000000100000000000000001 D"
b111 :
b111 ]
b111 C"
b101 `
b1000 T"
b1000000001100100000000000011100 S"
b1000000001100100000000000011100 ]"
b111 ^"
b100000 7"
b100000 E"
b10 /"
1+
#400
0+
#405
b0 `
bx0000000000000111000000000000011000000000000001010000000000000100000000000000001100000000000000100000000000000001 $"
b100000 7"
b100000 E"
b100000 /"
1+
#410
0+
#413
10
b1000 /
b1000 2
b1000 [
b1000000001100100000000000011100 -
b1000000001100100000000000011100 1
b1000000001100100000000000011100 Z
#415
b11 `
1'
b1000 9
b1000 g
b1000 @"
b111 <
b111 f
b111 >"
18
1;
b100000 7"
b100000 E"
b10 /"
1+
#420
0+
#425
bx :
bx ]
bx C"
b100 `
08
0;
0'
b100000 7"
b100000 E"
1!
b100000 /"
1+
#426
00
bx /
bx 2
bx [
bx -
bx 1
bx Z
#430
0+
#435
bx00000000000010000000000000000111000000000000011000000000000001010000000000000100000000000000001100000000000000100000000000000001 O
bx00000000000010000000000000000111000000000000011000000000000001010000000000000100000000000000001100000000000000100000000000000001 x
bx00000000000010000000000000000111000000000000011000000000000001010000000000000100000000000000001100000000000000100000000000000001 D"
b1000 :
b1000 ]
b1000 C"
b101 `
b1001 T"
b1000000001100100000000000100000 S"
b1000000001100100000000000100000 ]"
b1000 ^"
b100000 7"
b100000 E"
b10 /"
1+
#440
0+
#445
b0 `
bx00000000000010000000000000000111000000000000011000000000000001010000000000000100000000000000001100000000000000100000000000000001 $"
b100000 7"
b100000 E"
b100000 /"
1+
#450
0+
#453
10
b1001 /
b1001 2
b1001 [
b1000000001100100000000000100000 -
b1000000001100100000000000100000 1
b1000000001100100000000000100000 Z
#455
b11 `
1'
b1001 9
b1001 g
b1001 @"
b1000 <
b1000 f
b1000 >"
18
1;
b100000 7"
b100000 E"
b10 /"
1+
#460
0+
#465
bx :
bx ]
bx C"
b100 `
08
0;
0'
b100000 7"
b100000 E"
1!
b100000 /"
1+
#466
00
bx /
bx 2
bx [
bx -
bx 1
bx Z
#470
0+
#475
bx000000000000100100000000000010000000000000000111000000000000011000000000000001010000000000000100000000000000001100000000000000100000000000000001 O
bx000000000000100100000000000010000000000000000111000000000000011000000000000001010000000000000100000000000000001100000000000000100000000000000001 x
bx000000000000100100000000000010000000000000000111000000000000011000000000000001010000000000000100000000000000001100000000000000100000000000000001 D"
b1001 :
b1001 ]
b1001 C"
b101 `
b1010 T"
b1000000001100100000000000100100 S"
b1000000001100100000000000100100 ]"
b1001 ^"
b100000 7"
b100000 E"
b10 /"
1+
#480
0+
#485
b0 `
bx000000000000100100000000000010000000000000000111000000000000011000000000000001010000000000000100000000000000001100000000000000100000000000000001 $"
b100000 7"
b100000 E"
b100000 /"
1+
#490
0+
#493
10
b1010 /
b1010 2
b1010 [
b1000000001100100000000000100100 -
b1000000001100100000000000100100 1
b1000000001100100000000000100100 Z
#495
b11 `
1'
b1010 9
b1010 g
b1010 @"
b1001 <
b1001 f
b1001 >"
18
1;
b100000 7"
b100000 E"
b10 /"
1+
#500
0+
#505
bx :
bx ]
bx C"
b100 `
08
0;
0'
b100000 7"
b100000 E"
1!
b100000 /"
1+
#506
00
bx /
bx 2
bx [
bx -
bx 1
bx Z
#510
0+
#515
bx0000000000001010000000000000100100000000000010000000000000000111000000000000011000000000000001010000000000000100000000000000001100000000000000100000000000000001 O
bx0000000000001010000000000000100100000000000010000000000000000111000000000000011000000000000001010000000000000100000000000000001100000000000000100000000000000001 x
bx0000000000001010000000000000100100000000000010000000000000000111000000000000011000000000000001010000000000000100000000000000001100000000000000100000000000000001 D"
b1010 :
b1010 ]
b1010 C"
b101 `
b0 T"
b1000000001100100000000000101000 S"
b1000000001100100000000000101000 ]"
b1010 ^"
b100000 7"
b100000 E"
b10 /"
1+
#520
0+
#525
b0 `
bx0000000000001010000000000000100100000000000010000000000000000111000000000000011000000000000001010000000000000100000000000000001100000000000000100000000000000001 $"
b100000 7"
b100000 E"
b100000 /"
1+
#530
0+
#533
10
b0 /
b0 2
b0 [
b1000000001100100000000000101000 -
b1000000001100100000000000101000 1
b1000000001100100000000000101000 Z
#535
b11 `
1'
b0 9
b0 g
b0 @"
b1010 <
b1010 f
b1010 >"
18
1;
b100000 7"
b100000 E"
b10 /"
1+
#540
0+
#545
bx :
bx ]
bx C"
b100 `
08
0;
0'
b100000 7"
b100000 E"
1!
b100000 /"
1+
#546
00
bx /
bx 2
bx [
bx -
bx 1
bx Z
#550
0+
#555
bx00000000000000000000000000001010000000000000100100000000000010000000000000000111000000000000011000000000000001010000000000000100000000000000001100000000000000100000000000000001 O
bx00000000000000000000000000001010000000000000100100000000000010000000000000000111000000000000011000000000000001010000000000000100000000000000001100000000000000100000000000000001 x
bx00000000000000000000000000001010000000000000100100000000000010000000000000000111000000000000011000000000000001010000000000000100000000000000001100000000000000100000000000000001 D"
b0 :
b0 ]
b0 C"
b101 `
b1000000001100100000000000101100 S"
b1000000001100100000000000101100 ]"
b1011 ^"
b100000 7"
b100000 E"
b10 /"
1+
#560
0+
#565
b0 `
bx00000000000000000000000000001010000000000000100100000000000010000000000000000111000000000000011000000000000001010000000000000100000000000000001100000000000000100000000000000001 $"
b100000 7"
b100000 E"
b100000 /"
1+
#570
0+
#573
10
b0 /
b0 2
b0 [
b1000000001100100000000000101100 -
b1000000001100100000000000101100 1
b1000000001100100000000000101100 Z
#575
b11 `
1'
b1011 <
b1011 f
b1011 >"
18
1;
b100000 7"
b100000 E"
b10 /"
1+
#580
0+
#585
bx :
bx ]
bx C"
b100 `
08
0;
0'
b100000 7"
b100000 E"
1!
b100000 /"
1+
#586
00
bx /
bx 2
bx [
bx -
bx 1
bx Z
#590
0+
#595
bx000000000000000000000000000000000000000000001010000000000000100100000000000010000000000000000111000000000000011000000000000001010000000000000100000000000000001100000000000000100000000000000001 O
bx000000000000000000000000000000000000000000001010000000000000100100000000000010000000000000000111000000000000011000000000000001010000000000000100000000000000001100000000000000100000000000000001 x
bx000000000000000000000000000000000000000000001010000000000000100100000000000010000000000000000111000000000000011000000000000001010000000000000100000000000000001100000000000000100000000000000001 D"
b0 :
b0 ]
b0 C"
b101 `
b1000000001100100000000000110000 S"
b1000000001100100000000000110000 ]"
b1100 ^"
b100000 7"
b100000 E"
b10 /"
1+
#600
0+
#605
b0 `
bx000000000000000000000000000000000000000000001010000000000000100100000000000010000000000000000111000000000000011000000000000001010000000000000100000000000000001100000000000000100000000000000001 $"
b100000 7"
b100000 E"
b100000 /"
1+
#610
0+
#613
10
b0 /
b0 2
b0 [
b1000000001100100000000000110000 -
b1000000001100100000000000110000 1
b1000000001100100000000000110000 Z
#615
b11 `
1'
b1100 <
b1100 f
b1100 >"
18
1;
b100000 7"
b100000 E"
b10 /"
1+
#620
0+
#625
bx :
bx ]
bx C"
b100 `
08
0;
0'
b100000 7"
b100000 E"
1!
b100000 /"
1+
#626
00
bx /
bx 2
bx [
bx -
bx 1
bx Z
#630
0+
#635
bx0000000000000000000000000000000000000000000000000000000000001010000000000000100100000000000010000000000000000111000000000000011000000000000001010000000000000100000000000000001100000000000000100000000000000001 O
bx0000000000000000000000000000000000000000000000000000000000001010000000000000100100000000000010000000000000000111000000000000011000000000000001010000000000000100000000000000001100000000000000100000000000000001 x
bx0000000000000000000000000000000000000000000000000000000000001010000000000000100100000000000010000000000000000111000000000000011000000000000001010000000000000100000000000000001100000000000000100000000000000001 D"
b0 :
b0 ]
b0 C"
b101 `
b1000000001100100000000000110100 S"
b1000000001100100000000000110100 ]"
b1101 ^"
b100000 7"
b100000 E"
b10 /"
1+
#640
0+
#645
b0 `
bx0000000000000000000000000000000000000000000000000000000000001010000000000000100100000000000010000000000000000111000000000000011000000000000001010000000000000100000000000000001100000000000000100000000000000001 $"
b100000 7"
b100000 E"
b100000 /"
1+
#650
0+
#653
10
b0 /
b0 2
b0 [
b1000000001100100000000000110100 -
b1000000001100100000000000110100 1
b1000000001100100000000000110100 Z
#655
b11 `
1'
b1101 <
b1101 f
b1101 >"
18
1;
b100000 7"
b100000 E"
b10 /"
1+
#660
0+
#665
bx :
bx ]
bx C"
b100 `
08
0;
0'
b100000 7"
b100000 E"
1!
b100000 /"
1+
#666
00
bx /
bx 2
bx [
bx -
bx 1
bx Z
#670
0+
#675
bx00000000000000000000000000000000000000000000000000000000000000000000000000001010000000000000100100000000000010000000000000000111000000000000011000000000000001010000000000000100000000000000001100000000000000100000000000000001 O
bx00000000000000000000000000000000000000000000000000000000000000000000000000001010000000000000100100000000000010000000000000000111000000000000011000000000000001010000000000000100000000000000001100000000000000100000000000000001 x
bx00000000000000000000000000000000000000000000000000000000000000000000000000001010000000000000100100000000000010000000000000000111000000000000011000000000000001010000000000000100000000000000001100000000000000100000000000000001 D"
b0 :
b0 ]
b0 C"
b101 `
b1000000001100100000000000111000 S"
b1000000001100100000000000111000 ]"
b1110 ^"
b100000 7"
b100000 E"
b10 /"
1+
#680
0+
#685
b0 `
bx00000000000000000000000000000000000000000000000000000000000000000000000000001010000000000000100100000000000010000000000000000111000000000000011000000000000001010000000000000100000000000000001100000000000000100000000000000001 $"
b100000 7"
b100000 E"
b100000 /"
1+
#690
0+
#693
10
b0 /
b0 2
b0 [
b1000000001100100000000000111000 -
b1000000001100100000000000111000 1
b1000000001100100000000000111000 Z
#695
b11 `
1'
b1110 <
b1110 f
b1110 >"
18
1;
b100000 7"
b100000 E"
b10 /"
1+
#700
0+
#705
bx :
bx ]
bx C"
b100 `
08
0;
0'
b100000 7"
b100000 E"
1!
b100000 /"
1+
#706
00
bx /
bx 2
bx [
bx -
bx 1
bx Z
#710
0+
